Write Imagery to Tiles • filearchy
…
Now open the html index ** “leaflet.html” ** from that directory.

Or, just do a dry_run:

(scheme <- gdal_tiles(dsn,  zoom = 0:5))
#> # A tibble: 1,365 × 11
#>     tile tile_col tile_row  zoom       xmin       xmax      ymin      ymax  ncol
#>    <dbl>    <dbl>    <dbl> <int>      <dbl>      <dbl>     <dbl>     <dbl> <dbl>
#>  1     0        0        0     0 -20037508.  20037508. -2.0038e7  2.0038e7   256
#>  2     2        0        0     1 -20037508.         0  -2.0038e7  0          256
#>  3     3        1        0     1         0   20037508. -2.0038e7  0          256
#>  4     0        0        1     1 -20037508.         0   0         2.0038e7   256
#>  5     1        1        1     1         0   20037508.  0         2.0038e7   256
#>  6    12        0        0     2 -20037508. -10018754. -2.0038e7 -1.0019e7   256
#>  7    13        1        0     2 -10018754.         0  -2.0038e7 -1.0019e7   256
#>  8    14        2        0     2         0   10018754. -2.0038e7 -1.0019e7   256
#>  9    15        3        0     2  10018754.  20037508. -2.0038e7 -1.0019e7   256
#> 10     8        0        1     2 -20037508. -10018754. -1.0019e7  0          256
#> # ℹ 1,355 more rows
#> # ℹ 2 more variables: nrow <dbl>, crs <chr>
…
